Exploratory analysis: gender and cognitive competence
…
Where there are “other” or “don’t want to answer” for the gender question

Show the code

unique(allYrsFinal$gender)

[1] "Female" "Male"   NA      

Show the code

allYrsFinal|>
  filter(is.na(gender))

# A tibble: 123 × 297
   instructor  section instructor.section opt.out.pre opt.out.post test.time.pre
   <chr>         <dbl> <chr>                    <dbl>        <dbl>         <dbl>
 1 Instructor2       1 Instructor2_Secti…           1           NA            16
 2 Instructor3       2 Instructor3_Secti…           1            1            28
 3 Instructor4       3 Instructor4_Secti…           1            1            62
 4 Instructor4       4 Instructor4_Secti…           1            1            24
 5 Instructor5       1 Instructor5_Secti…           1           NA            11
 6 Instructor8       1 Instructor8_Secti…           1           NA            12
 7 Instructor8       1 Instructor8_Secti…           1           NA          2777
 8 Instructor…       1 Instructor11_Sect…           1            1            33
 9 Instructor…       1 Instructor11_Sect…           1           NA            22
10 Instructor…       1 Instructor11_Sect…           1            1            27
# ℹ 113 more rows
# ℹ 291 more variables: test.time.post <dbl>, q16a.pre.c.1415 <chr>,
#   q16b.pre.c.1415 <chr>, q16c.pre.c.1415 <chr>, q16a.pre.c <chr>,
#   q16b.pre.c <chr>, q16c.pre.c <chr>, q16d.pre.c <chr>, q16.pre.c <dbl>,
#   q17.pre.c <chr>, q18.pre.c <chr>, q19.pre.c <chr>, q20.pre.c <chr>,
#   q21.pre.c <chr>, q22.pre.c <chr>, q23.pre.c <chr>, q24.pre.c <chr>,
#   q25.pre.c <chr>, q26.pre.c <chr>, q27.pre.c <chr>, q28.pre.c <chr>, …
…
